// Jest Snapshot v1, https://goo.gl/fbAQLP

exports[`Modal component Snapshot 1`] = `
Object {
  "asFragment": [Function],
  "baseElement": <body
    class="modal-is-open"
  >
    <div>
      <div
        class="modal__overlay"
      >
        <div
          class="modal__div"
        >
          <div
            class="modal__header"
          >
            <h1
              class="modal__header__text"
            >
              Testing Modal
            </h1>
            <button
              class="modal__header__close-button"
            >
              X
            </button>
          </div>
          <p
            class="modal__text"
          >
            Text for testing modal
          </p>
          <div
            class="modal__button-container"
          />
        </div>
      </div>
    </div>
  </body>,
  "container": <div>
    <div
      class="modal__overlay"
    >
      <div
        class="modal__div"
      >
        <div
          class="modal__header"
        >
          <h1
            class="modal__header__text"
          >
            Testing Modal
          </h1>
          <button
            class="modal__header__close-button"
          >
            X
          </button>
        </div>
        <p
          class="modal__text"
        >
          Text for testing modal
        </p>
        <div
          class="modal__button-container"
        />
      </div>
    </div>
  </div>,
  "debug": [Function],
  "findAllByAltText": [Function],
  "findAllByDisplayValue": [Function],
  "findAllByLabelText": [Function],
  "findAllByPlaceholderText": [Function],
  "findAllByRole": [Function],
  "findAllByTestId": [Function],
  "findAllByText": [Function],
  "findAllByTitle": [Function],
  "findByAltText": [Function],
  "findByDisplayValue": [Function],
  "findByLabelText": [Function],
  "findByPlaceholderText": [Function],
  "findByRole": [Function],
  "findByTestId": [Function],
  "findByText": [Function],
  "findByTitle": [Function],
  "getAllByAltText": [Function],
  "getAllByDisplayValue": [Function],
  "getAllByLabelText": [Function],
  "getAllByPlaceholderText": [Function],
  "getAllByRole": [Function],
  "getAllByTestId": [Function],
  "getAllByText": [Function],
  "getAllByTitle": [Function],
  "getByAltText": [Function],
  "getByDisplayValue": [Function],
  "getByLabelText": [Function],
  "getByPlaceholderText": [Function],
  "getByRole": [Function],
  "getByTestId": [Function],
  "getByText": [Function],
  "getByTitle": [Function],
  "queryAllByAltText": [Function],
  "queryAllByDisplayValue": [Function],
  "queryAllByLabelText": [Function],
  "queryAllByPlaceholderText": [Function],
  "queryAllByRole": [Function],
  "queryAllByTestId": [Function],
  "queryAllByText": [Function],
  "queryAllByTitle": [Function],
  "queryByAltText": [Function],
  "queryByDisplayValue": [Function],
  "queryByLabelText": [Function],
  "queryByPlaceholderText": [Function],
  "queryByRole": [Function],
  "queryByTestId": [Function],
  "queryByText": [Function],
  "queryByTitle": [Function],
  "rerender": [Function],
  "unmount": [Function],
}
`;
